{
  "editor": [
    {
      "icon": "",
      "key": "settings",
      "header": "Settings",
      "disabled": false,
      "fields": [
        {
          "key": "image",
          "header": "Image",
          "type": "image"
        },
        {
          "key": "headline",
          "header": "Header",
          "type": "text"
        },
        {
          "key":"description",
          "header":"Description",
          "type" : "text"
        },
        {
          "key": "price",
          "header": "Price",
          "type": "text"
        }
      ]
    }
  ],
  "config": {
    "settings": {
      "image": "./assets/image.jpg",
      "headline":"Crypto Art",
      "description":"Lorem Ipsum is simply dummy text of the printing and typesetting industry. Lorem Ipsum has been the industry's standard dummy text ever since the 15",
      "price": "100"
    }
  }
}
